Exploratory Data Analysis: Diabetes Health Indicators – Diabetes Modeling Project
…
Before any analysis, I check for missing values.

# Count missing values per column

missing_summary <- diabetes %>%
summarise(across(everything(), ~ sum(is.na(.)))) %>%
pivot_longer(everything(),
names_to = "variable",
values_to = "n_missing") %>%
arrange(desc(n_missing))

missing_summary

# A tibble: 22 × 2
   variable               n_missing
   <chr>                      <int>
 1 diabetes_binary                0
 2 high_bp                        0
 3 high_chol                      0
 4 chol_check                     0
 5 bmi                            0
 6 smoker                         0
 7 stroke                         0
 8 heart_diseaseor_attack         0
 9 phys_activity                  0
10 fruits                         0
# ℹ 12 more rows
…
